{
  "name": "KnowledgeKeeper",
  "description": "Write me!",
  "version": "0.1",
  "perl": "6.*",
  "auth": "Write me!",
  "depends": [
    "Cro::HTTP",
    "Cro::WebApp",
    "Temp::Path"
  ],
  "build-depends": [],
  "test-depends": [
    "Cro::HTTP::Test"
  ],
  "provides": {
    "KnowledgeKeeper::Action::File": "lib/KnowledgeKeeper/Action/File.pm6",
    "KnowledgeKeeper::Grammar::File": "lib/KnowledgeKeeper/Grammar/File.pm6",
    "KnowledgeKeeper::Note": "lib/KnowledgeKeeper/Note.pm6",
    "KnowledgeKeeper::Routes": "lib/KnowledgeKeeper/Routes.pm6"
  },
  "resources": [],
  "license": "Write me!",
  "source-url": "Write me!"
}